{
  "setupFilesAfterEnv": [
    "<rootDir>/tests/setupTests.ts",
    "@testing-library/jest-dom"
  ],
  "testEnvironment": "jsdom",
  "transform": {
    "^.+\\.(ts|tsx)$": "ts-jest"
  },
  "moduleNameMapper": {
    "\\.(css|less|sass|scss)$": "identity-obj-proxy"
  },
  "testPathIgnorePatterns": ["/node_modules/", "/cypress/"],
  "moduleFileExtensions": ["ts", "tsx", "js", "jsx", "json", "node"]
}
